{
    "Recipients": ["navitel365@gmail.com", "va@airlab.team", "viktor.sergveev@inbox.ru"],
    "Theme": "Посылаем письмо с русской темой, бро! Посылаем письмо с русской темой, броПосылаем письмо с русской темой, броПосылаем письмо с русской темой, броПосылаем письмо с русской темой, броПосылаем письмо с русской темой, бро Посылаем письмо с русской темой, броПосылаем письмо с русской темой, бро q",
    "MessageFile": "a2.txt",
    "Attachments": ["a1.txt", "leo.jpg", "doc_file.doc", "music.mp3", "ls.pdf"]
}